…
For each guest in the guestlist (*guest* tibble), add a column for email address, which can be found in the *email* tibble.


```r
email <- email %>% 
  separate_rows(guest, sep = ', ') %>% # tibble email has different names concatenated in a row so separate them
  rename(name = guest)  # As in the guest tibble the names are under a column named 'name,' I'm using the same for the email tibble

guest %>% 
  left_join(email, by = "name")
```

```
## # A tibble: 30 x 8
##    party name  meal_wedding meal_brunch attendance_wedd~ attendance_brun~
##    <dbl> <chr> <chr>        <chr>       <chr>            <chr>           
##  1     1 Somm~ PENDING      PENDING     PENDING          PENDING         
##  2     1 Phil~ vegetarian   Menu C      CONFIRMED        CONFIRMED       
##  3     1 Blan~ chicken      Menu A      CONFIRMED        CONFIRMED       
##  4     1 Emaa~ PENDING      PENDING     PENDING          PENDING         
##  5     2 Blai~ chicken      Menu C      CONFIRMED        CONFIRMED       
##  6     2 Nige~ <NA>         <NA>        CANCELLED        CANCELLED       
##  7     3 Sine~ PENDING      PENDING     PENDING          PENDING         
##  8     4 Ayra~ vegetarian   Menu B      PENDING          PENDING         
##  9     5 Atla~ PENDING      PENDING     PENDING          PENDING         
## 10     5 Denz~ fish         Menu B      CONFIRMED        CONFIRMED       
## # ... with 20 more rows, and 2 more variables: attendance_golf <chr>,
## #   email <chr>
```
…
