…
More problematic is some untold assumptions that were made in the process from my side. For example, previously loaded packages may have overwritten functions I intended to use! As such packages are not attached without an explicit statement, researchers trying to replicate my analysis would get different results. Therefore, it would be a better practice, not just for disseminating the data and analysis process but as a general habit in writing R codes, to start any code with the  **here** package.

# Exercise 2: Factor management

I chose to work on the *gapminder* dataset. It has two factor variables *continent* and *country*. Between the two, my focus is on *continent*. Specifically, the datapoints associated with Oceania will be dropped.

Before we dive in the actual analysis, let's make sure that these two variables are actually factors.


```r
gapminder
```

```
## # A tibble: 1,704 x 6
##    country     continent  year lifeExp      pop gdpPercap
##    <fct>       <fct>     <int>   <dbl>    <int>     <dbl>
##  1 Afghanistan Asia       1952    28.8  8425333      779.
##  2 Afghanistan Asia       1957    30.3  9240934      821.
##  3 Afghanistan Asia       1962    32.0 10267083      853.
##  4 Afghanistan Asia       1967    34.0 11537966      836.
##  5 Afghanistan Asia       1972    36.1 13079460      740.
##  6 Afghanistan Asia       1977    38.4 14880372      786.
##  7 Afghanistan Asia       1982    39.9 12881816      978.
##  8 Afghanistan Asia       1987    40.8 13867957      852.
##  9 Afghanistan Asia       1992    41.7 16317921      649.
## 10 Afghanistan Asia       1997    41.8 22227415      635.
## # ... with 1,694 more rows
```
…
```
## Parsed with column specification:
## cols(
##   country = col_character(),
##   averageLifeExp = col_double(),
##   sdLifeExp = col_double()
## )
```

```r
imported
```

```
## # A tibble: 140 x 3
##    country     averageLifeExp sdLifeExp
##    <chr>                <dbl>     <dbl>
##  1 Afghanistan           37.5      5.10
##  2 Albania               68.4      6.32
##  3 Algeria               59.0     10.3 
##  4 Angola                37.9      4.01
##  5 Argentina             69.1      4.19
##  6 Austria               73.1      4.38
##  7 Bahrain               65.6      8.57
##  8 Bangladesh            49.8      9.03
##  9 Belgium               73.6      3.78
## 10 Benin                 48.8      6.13
## # ... with 130 more rows
```
…
```
## [1] "character"
```

However, when we re-order the country by the averageLifeExp, it would be changed into *factor* before reordered.


```r
imported %>% 
  mutate(country = fct_reorder(country, averageLifeExp, .desc = TRUE)) %>% 
  arrange(country)
```

```
## # A tibble: 140 x 3
##    country     averageLifeExp sdLifeExp
##    <fct>                <dbl>     <dbl>
##  1 Iceland               76.5      3.03
##  2 Sweden                76.2      3.00
##  3 Norway                75.8      2.42
##  4 Netherlands           75.6      2.49
##  5 Switzerland           75.6      4.01
##  6 Canada                74.9      3.95
##  7 Japan                 74.8      6.49
##  8 Denmark               74.4      2.22
##  9 France                74.3      4.30
## 10 Spain                 74.2      5.16
## # ... with 130 more rows
```
…
